 {
    "from": 1,
    "to": 10,
    "total": 42,
    "currentPage": 1,
    "totalPages": 5,
    "queryTime": "0.007",
    "totalTime": "0.270",
    "partial": false,
    "canonicalUrl": "/v1/products(categoryPath.id=abcat0502000&driveCapacityGb!=*)?show=sku,name,salePrice&format=json&apiKey=YourAPIKey",
    "products": [
        {
            "sku": 6941496,
            "name": "Apple® - MacBook Pro with Retina display - 13.3\" Display - 4GB Memory - 128GB Flash Storage",
            "salePrice": 1299.99
        },
        {
            "sku": 6293168,
            "name": "Apple® - MacBook Pro with Retina display - 13.3\" Display - 8GB Memory - 256GB Flash Storage",
            "salePrice": 1499.99
        }
    ]
}